{
  "count": 1000,
  "limit": 10,
  "page": 0,
  "totalPages": 100,
  "rows": [
    {
      "id": "1",
      "name": "书籍书籍1书籍1书籍1",
      "createDate": "2021-11-21T13:23:22.5"
    },
    {
      "id": "2",
      "name": "书籍书籍2书籍1书籍1",
      "createDate": "2021-11-21T13:23:22.5"
    },
    {
      "id": "3",
      "name": "书籍书籍3书籍1书籍1",
      "createDate": "2021-11-21T13:23:22.5"
    },
    {
      "id": "4",
      "name": "书籍书籍4书籍1书籍1",
      "createDate": "2021-11-21T13:23:22.5"
    },
    {
      "id": "5",
      "name": "书籍书籍5书籍1书籍1",
      "createDate": "2021-11-21T13:23:22.5"
    },
    {
      "id": "6",
      "name": "书籍书籍6书籍1书籍1",
      "createDate": "2021-11-21T13:23:22.5"
    },
    {
      "id": "7",
      "name": "书籍书籍7书籍1书籍1",
      "createDate": "2021-11-21T13:23:22.5"
    },
    {
      "id": "8",
      "name": "书籍书籍8书籍1书籍1",
      "createDate": "2021-11-21T13:23:22.5"
    },
    {
      "id": "9",
      "name": "书籍书籍9书籍1书籍1",
      "createDate": "2021-11-21T13:23:22.5"
    },
    {
      "id": "10",
      "name": "书籍书籍10书籍1书籍1",
      "createDate": "2021-11-21T13:23:22.5"
    }
  ]
}